^C:\USERS\DW\SOURCE\REPOS\HOMEWORK_11\RELEASE\HELPERS.OBJ|C:\USERS\DW\SOURCE\REPOS\HOMEWORK_11\RELEASE\HOMEWORK_11.OBJ
C:\USERS\DW\SOURCE\REPOS\HOMEWORK_11\RELEASE\HOMEWORK_11.EXE
C:\USERS\DW\SOURCE\REPOS\HOMEWORK_11\RELEASE\HOMEWORK_11.PDB
